#,ID,Название,Имя,slug
liveq.book:id,title,name,slug
1,Автостопщик,,stop
2,Африканский студент,,afro
3,Буддист,,buddist
4,Выпускник интерната,,detdom
5,ВИЧ-положительный человек,,aids
6,Гей,,gay
7,Инвалид-колясочник,,invalid
8,Композитор,,composer
9,Культуртрегер,,treger
10,Лесбиянка,,lesbi
11,Мусульманка,,muslim
12,Незрячий человек,,blind
13,Правоверный еврей,,jude
14,Семья с приемным ребенком,,adopt
15,Социальный работник,,social
16,Стриптизерша,,strip
17,Трансексуал,,trans
18,"Цыгановед, ориентолог",,gypsy
19,Школьный молодой учитель,,teacher
20,Экс-наркозависимый,,narko
21,Экспат из Германии,,expat

#,ID,number,name
liveq.reader:id,number,name
2,2,Мирза
4,4,Михаил
6,6,Федор
8,8,Бруно
10,10,Пьер
12,12,Виссарион
14,14,Сирано
16,16,Эрнст
18,18,Клод
20,20,Александр
22,22,Иоганн
24,24,Томас
26,26,Поль
28,28,Чарльз
30,30,Абдулла
32,32,Дени
34,34,Николай
36,36,Эмиль
38,38,Карл
40,40,Пётр
42,42,Жюльен
44,44,Пьер
46,46,Поль
48,48,Авраам
50,50,Казимир
52,52,Пьер
54,54,Карл
56,56,Андрей
58,58,Жан
60,60,Илья
62,62,Октав
64,64,Налбандян
66,66,Жак
68,68,Фридрих
70,70,Дмитрий
72,72,Реймарус
74,74,Александр
76,76,Жозеф
78,78,Уолтер
80,80,Иван
82,82,Бенедикт
84,84,Лео
86,86,Василий
88,88,Марк
90,90,Климент
92,92,Джон
94,94,Иван
96,96,Людвиг
98,98,Афанасий
100,100,Бернар
102,102,Жозеф
104,104,Николай
106,106,Антон
108,108,Перси
110,110,Иоганн
112,112,Давид
114,114,Эдельман
116,116,Фридрих
118,118,Фридрих
1,1,Лидия
3,3,Юлия
5,5,Варвара
7,7,Анна
9,9,Мария
11,11,Белла
13,13,Анна
15,15,Марианна
17,17,Анна
19,19,Агния
21,21,Виктория
23,23,Юлия
25,25,Нина
27,27,Ольга
29,29,Раиса
31,31,Анна
33,33,Людмила
35,35,Светлана
37,37,Лара
39,39,Зинаида
41,41,Инна
43,43,Надежда
45,45,Елизавета
47,47,Марианна
49,49,Сусанна
51,51,Аделаида
53,53,Зинаида
55,55,Наталья
57,57,Алла
59,59,Нина
61,61,Елена
63,63,Екатерина
65,65,Ры
67,67,Юлия
69,69,Вера
71,71,Анна
73,73,Жукова
75,75,Софья
77,77,Вера
79,79,Елена
81,81,Александра
83,83,Вера
85,85,Грета
87,87,Нина
89,89,Яшка
91,91,Златослава
93,93,Маруся
95,95,Алина
97,97,Татьяна
99,99,Галина
101,101,Наталья
103,103,Мирра
105,105,Надежда
107,107,Ольга
109,109,Светлана
111,111,Ирина
113,113,Елизавета
115,115,Юнна
117,117,Марина

#,ID,Описание,slug
liveq.status:id,name,slug
1,Идёт запись,open
2,Закрыт для записи,closed
3,Идёт разговор,talk
4,Завершен,finished

#,ID,Начало разговора,Время последнего обновления,Книга,Статус сеанса чтения,Читатели
#liveq.session:id,start,last_modified,book,status,readers
#1,2011-11-12 04:52:04.000000,2011-11-12 05:22:04.000000,2011-11-12 04:22:21.627464,1,1,"[1, 2, 3]"


#,ID,name,permissions
auth.group:id,name,permissions
1,register,"[28, 29, 30, 31, 32, 33]"
2,curator,"[30, 32, 35]"
3,manager,"[25, 26, 27, 28, 29, 30, 31, 32, 33, 34, 35, 36]"

#,ID,username,first name,last name,e-mail address,password,staff status,active,superuser status,last login,date joined,groups,user permissions
auth.user:id,username,first_name,last_name,email,password,is_staff,is_active,is_superuser,last_login,date_joined,groups,user_permissions
1,admin, , ,admin@humanlib.bookwar.info,sha1$7142d$ed5dfc0b551e23fbd1ab2ac0dac61ac2718b4096,True,True,True,2010-09-17 18:35:08.861106,2010-09-17 17:36:19.370184,,
